%YAML 1.1
%TAG !u! tag:unity3d.com,2011:
--- !u!21 &2100000
Material:
  serializedVersion: 6
  m_ObjectHideFlags: 0
  m_PrefabParentObject: {fileID: 0}
  m_PrefabInternal: {fileID: 0}
  m_Name: Copa Baccarat Cristal (Fade)
  m_Shader: {fileID: 46, guid: 0000000000000000f000000000000000, type: 0}
  m_ShaderKeywords: _ALPHABLEND_ON _EMISSION _MK_BUMP_MAP _MK_LIGHTMODEL_BLINN_PHONG
    _MK_REFLECTIVE_DEFAULT _MK_RIM _MK_SPECULAR_MAP _NORMALMAP _PARALLAXMAP _USEREFLECTION_ON
    _USERIM_ON
  m_LightmapFlags: 1
  m_EnableInstancingVariants: 0
  m_DoubleSidedGI: 0
  m_CustomRenderQueue: 3000
  stringTagMap:
    RenderType: Transparent
  disabledShaderPasses: []
  m_SavedProperties:
    serializedVersion: 3
    m_TexEnvs:
    - _BumpMap:
        m_Texture: {fileID: 2800000, guid: 904644092cc28e64798d1fa2afcf6c90, type: 3}
        m_Scale: {x: 1, y: 1}
        m_Offset: {x: 0, y: 0}
    - _DetailAlbedoMap:
        m_Texture: {fileID: 0}
        m_Scale: {x: 1, y: 1}
        m_Offset: {x: 0, y: 0}
    - _DetailMask:
        m_Texture: {fileID: 0}
        m_Scale: {x: 1, y: 1}
        m_Offset: {x: 0, y: 0}
    - _DetailNormalMap:
        m_Texture: {fileID: 0}
        m_Scale: {x: 1, y: 1}
        m_Offset: {x: 0, y: 0}
    - _EmissionMap:
        m_Texture: {fileID: 0}
        m_Scale: {x: 1, y: 1}
        m_Offset: {x: 0, y: 0}
    - _MainTex:
        m_Texture: {fileID: 0}
        m_Scale: {x: 1, y: 1}
        m_Offset: {x: 0, y: 0}
    - _MetallicGlossMap:
        m_Texture: {fileID: 0}
        m_Scale: {x: 1, y: 1}
        m_Offset: {x: 0, y: 0}
    - _OcclusionMap:
        m_Texture: {fileID: 0}
        m_Scale: {x: 1, y: 1}
        m_Offset: {x: 0, y: 0}
    - _ParallaxMap:
        m_Texture: {fileID: 2800000, guid: dbde2ef4f522db4478dad6710af4558b, type: 3}
        m_Scale: {x: 1, y: 1}
        m_Offset: {x: 0, y: 0}
    - _ReflectMap:
        m_Texture: {fileID: 0}
        m_Scale: {x: 1, y: 1}
        m_Offset: {x: 0, y: 0}
    - _SpecGlossMap:
        m_Texture: {fileID: 0}
        m_Scale: {x: 1, y: 1}
        m_Offset: {x: 0, y: 0}
    - _TranslucentMap:
        m_Texture: {fileID: 0}
        m_Scale: {x: 1, y: 1}
        m_Offset: {x: 0, y: 0}
    m_Floats:
    - _AlbedoMap: 0
    - _BumpScale: 5
    - _Cutoff: 0.5
    - _DetailNormalMapScale: 1
    - _DetailTint: 0.25
    - _Distortion: 0.439
    - _DstBlend: 10
    - _FresnelFactor: 1.4
    - _GlossMapScale: 1
    - _Glossiness: 0.8
    - _GlossyReflections: 1
    - _LightModel: 3
    - _MKEditorShowDetailBehavior: 0
    - _MKEditorShowLightBehavior: 0
    - _MKEditorShowMainBehavior: 1
    - _MKEditorShowReflectionBehavior: 1
    - _MKEditorShowRenderBehavior: 0
    - _MKEditorShowRimBehavior: 1
    - _MKEditorShowSpecularBehavior: 1
    - _MKEditorShowTranslucentBehavior: 0
    - _MainTint: 0.591
    - _Metallic: 0.25
    - _Mode: 2
    - _NormalIntensity: 1.317
    - _OcclusionStrength: 1
    - _Parallax: 0.005
    - _ReflectIntensity: 0.25
    - _RenderMode: 0
    - _RimIntensity: 0.116
    - _RimSize: 3.21
    - _ShadowIntensity: 0.1
    - _Shininess: 0.027
    - _SmoothnessTextureChannel: 0
    - _SpecIntensity: 0.844
    - _SpecularHighlights: 1
    - _SpecularIntensity: 0
    - _SrcBlend: 5
    - _TranslucentIntensity: 0.5
    - _TranslucentShininess: 0.275
    - _UVSec: 0
    - _UseFastMode: 0
    - _UseFresnel: 0
    - _UseReflection: 1
    - _UseRim: 1
    - _UseTranslucent: 0
    - _ZWrite: 0
    m_Colors:
    - _Color: {r: 1, g: 1, b: 1, a: 0.572}
    - _DetailColor: {r: 1, g: 1, b: 1, a: 1}
    - _Diffusecolor: {r: 1, g: 1, b: 1, a: 0.403}
    - _Emission: {r: 0, g: 0, b: 0, a: 0}
    - _EmissionColor: {r: 0, g: 0, b: 0, a: 0}
    - _ReflectColor: {r: 1, g: 1, b: 1, a: 0.5}
    - _RimColor: {r: 1, g: 1, b: 1, a: 1}
    - _SpecColor: {r: 1, g: 1, b: 1, a: 0.328}
    - _Speccolor: {r: 1, g: 1, b: 1, a: 0.541}
    - _TranslucentColor: {r: 1, g: 1, b: 1, a: 0.5}
